<?xml version="1.0" encoding="utf-8"?>
<!-- Generator: Adobe Illustrator 19.2.1, SVG Export Plug-In . SVG Version: 6.00 Build 0)  -->
<svg version="1.1" id="Layer_1" xmlns="http://www.w3.org/2000/svg" xmlns:xlink="http://www.w3.org/1999/xlink" x="0px" y="0px"
	 viewBox="0 0 865.7 417.8" style="enable-background:new 0 0 865.7 417.8;" xml:space="preserve">
<style type="text/css">
	.st0{fill:#ECF0F1;}
	.st1{fill:#213140;}
	.st2{opacity:0.4;fill:#375667;enable-background:new    ;}
	.st3{fill:#D0D3D6;}
	.st4{fill:#00AAE4;}
	.st5{fill:#30BDEE;}
	.st6{fill:#030404;}
	.st7{fill:#FFFFFF;}
	.st8{fill:#F6ECEE;}
	.st9{fill:#050605;}
	.st10{fill:#E81B44;}
	.st11{fill:#F8EEF1;}
	.st12{fill:#99CC00;}
	.st13{fill:#9ACA3C;}
	.st14{fill:#ECECEC;}
</style>
<title>logo</title>
<g id="Layer_2">
	<g id="Layer_1-2">
		<path class="st0" d="M207.7,183.6l59.5-28.5c2-1,4.4-0.1,5.3,1.9L327,270.6c1,2,0.1,4.4-1.9,5.3l-59.5,28.5c-2,1-4.4,0.1-5.3-1.9
			L205.8,189C204.9,187,205.7,184.6,207.7,183.6z"/>
		<rect x="234.1" y="175.1" transform="matrix(0.902 -0.4318 0.4318 0.902 -72.07 136.7277)" class="st1" width="62" height="104"/>
		<polygon class="st2" points="241.4,180.9 303.4,235.4 270.6,166.9 		"/>
		
			<ellipse transform="matrix(0.902 -0.4318 0.4318 0.902 -93.2493 153.4959)" class="st3" cx="291.5" cy="282.1" rx="5.6" ry="5.6"/>
		<rect x="233.1" y="172.8" transform="matrix(0.902 -0.4318 0.4318 0.902 -51.9431 120.7953)" class="st3" width="14" height="4"/>
		<g id="_Group_">
			<g id="_Group_2">
				<g id="_Group_3">
					
						<ellipse id="_Path_" transform="matrix(0.9568 -0.2909 0.2909 0.9568 -79.1637 100.7727)" class="st4" cx="299.4" cy="316.7" rx="3.9" ry="3.9"/>
					<path id="_Path_2" class="st4" d="M302.8,318.6c-0.2,0.3-0.4,0.7-0.7,0.9c2.3,2,4.8,3.7,7.4,5.3c0.9-0.8,1.9-1.5,3-2.2
						C309.1,321.6,305.9,320.3,302.8,318.6z"/>
				</g>
				<g id="_Group_4">
					
						<ellipse id="_Path_3" transform="matrix(0.9568 -0.2909 0.2909 0.9568 -73.4069 112.9159)" class="st4" cx="343.1" cy="303.4" rx="3.9" ry="3.9"/>
					<path id="_Path_4" class="st4" d="M341.3,306.9c0.3,0.2,0.7,0.3,1.1,0.4c-0.8,2.9-1.9,5.8-3.2,8.5c-1.2-0.1-2.4-0.2-3.7-0.1
						C337.8,312.9,339.8,310,341.3,306.9z"/>
				</g>
			</g>
			<path id="_Path_5" class="st4" d="M346.6,341.4c-8.3,6.3-18.5,9.4-28.9,8.8c3.9,2.6,11.3,8.7,14.3,18.6c4.1,13.5-4.2,15.9,1,30.4
				s10.7,13.6,12.9,13s2.5-4.9-0.1-9.3c-2.5-4,0.5-6.4,1.6-7c1.3-0.2,5.1,0.2,5.3,4.9c0.2,5.1,2.9,8.4,5,7.8s7.3-3,3.5-18
				s-12-12.3-16.1-25.8C342,355,344.8,345.7,346.6,341.4z"/>
			<path id="_Path_6" class="st4" d="M323.5,317.5c-14.1,4.3-23.7,14.5-23.2,23.9c4.8,8.1,18.5,11.2,32.6,6.9s23.7-14.5,23.2-23.9
				C351.3,316.4,337.6,313.2,323.5,317.5z"/>
			<g id="_Group_5">
				<path id="_Path_7" class="st5" d="M332.4,392.5c4.9-1.5,7.6-6.6,6.1-11.5c-0.8-2.6-2.8-4.8-5.3-5.8c0.3,6.6-2.6,10.4-1.8,17.5
					C331.7,392.6,332,392.6,332.4,392.5z"/>
				<path id="_Path_8" class="st5" d="M354.2,378.2c-3.3-3.3-6.8-5.8-9.1-13.1c-2.8,3.7-2.1,8.9,1.6,11.8
					C348.8,378.4,351.6,379,354.2,378.2z"/>
				<path id="_Path_9" class="st5" d="M356.9,391.5c0.7,2.5,2.8,4.3,5.3,4.8c-0.3-1.9-0.6-3.8-1.1-5.6c-0.5-2.2-1.3-4.3-2.3-6.3
					C356.9,386.2,356.1,388.9,356.9,391.5z"/>
				<path id="_Path_10" class="st5" d="M300.6,337.6c3.8,0.2,7-2.6,7.2-6.4c0.1-1.4-0.3-2.8-1-4C303.8,330,301.7,333.6,300.6,337.6z
					"/>
				
					<ellipse id="_Path_11" transform="matrix(0.9568 -0.2909 0.2909 0.9568 -79.3987 115.0469)" class="st5" cx="347.3" cy="324.6" rx="2.5" ry="2.5"/>
			</g>
			<g id="_Group_6">
				<path id="_Path_12" class="st6" d="M307.5,341.5c14.9-1.5,29.4-5.9,42.7-13C350.2,328.5,336.7,359.5,307.5,341.5z"/>
				<path id="_Path_13" class="st7" d="M315.9,340.4l4,2.1l1.8-3.3l3.3,2.1l1-3.1l3.1,2.1l1.2-3.3l3.1,1.8l0.7-3l3.5,1.5l0.8-3.1
					l3,1.8l1.4-3.6h-0.1C334.2,336,325.2,338.7,315.9,340.4z"/>
				<path id="_Path_14" class="st7" d="M339.6,341.9l-2.7-1.6l-0.5,3.5l-3.1-2l-0.3,3.8l-3-2.7l-0.5,3.8l-3.3-2.6l-0.9,3
					C330.4,347,335.5,345.2,339.6,341.9z"/>
			</g>
			<g id="_Group_7">
				<g id="_Group_8">
					
						<ellipse id="_Path_15" transform="matrix(0.9568 -0.2909 0.2909 0.9568 -82.2436 106.9864)" class="st8" cx="318.7" cy="330.1" rx="7" ry="7"/>
					
						<ellipse id="_Path_16" transform="matrix(0.9568 -0.2909 0.2909 0.9568 -82.2436 106.9864)" class="st4" cx="318.7" cy="330.1" rx="5" ry="5"/>
					
						<ellipse id="_Path_17" transform="matrix(0.9568 -0.2909 0.2909 0.9568 -82.2436 106.9864)" class="st9" cx="318.7" cy="330.1" rx="3.5" ry="3.5"/>
					<path id="_Path_18" class="st8" d="M323.1,327.6c-0.8-1.4-2.3-2.3-3.9-2.5c-0.9,0.9-0.9,2.4,0.1,3.3c0.9,0.9,2.4,0.9,3.3-0.1
						C322.8,328.2,323,327.9,323.1,327.6z"/>
				</g>
				<g id="_Group_9">
					
						<ellipse id="_Path_19" transform="matrix(0.9568 -0.2909 0.2909 0.9568 -80.1656 111.3665)" class="st8" cx="334.5" cy="325.3" rx="7" ry="7"/>
					
						<ellipse id="_Path_20" transform="matrix(0.9568 -0.2909 0.2909 0.9568 -80.1656 111.3665)" class="st4" cx="334.5" cy="325.3" rx="5" ry="5"/>
					
						<ellipse id="_Path_21" transform="matrix(0.9568 -0.2909 0.2909 0.9568 -80.1656 111.3665)" class="st9" cx="334.5" cy="325.3" rx="3.5" ry="3.5"/>
					<path id="_Path_22" class="st8" d="M338.9,322.8c-0.8-1.4-2.3-2.3-3.9-2.5c-0.9,0.9-0.9,2.4,0.1,3.3c0.9,0.9,2.4,0.9,3.3-0.1
						C338.6,323.4,338.7,323.1,338.9,322.8z"/>
				</g>
			</g>
		</g>
		<g id="_Group_10">
			<path id="_Path_23" class="st10" d="M507.4,384.3c0,0,4.9,7.4,22.9,12.4c0,0-5.5,11-7.3,14.1s8.1,8.4,11.7,6.7s18.3-18.9,38-62.4
				c1.7-3.7,5.6-14-3.3-19.9s-28.8-13.6-36.2-16.7s-13.9-1.2-20.8,11.2s-24.9,53-24.7,61.5c0.1,5.4,12.4,8.3,13.7,6
				S504.7,387.9,507.4,384.3z"/>
			<g id="_Group_11">
				<g id="_Group_12">
					
						<ellipse id="_Path_24" transform="matrix(0.454 -0.891 0.891 0.454 -17.1434 654.2773)" class="st11" cx="525.3" cy="341.1" rx="11" ry="11"/>
					
						<ellipse id="_Path_25" transform="matrix(0.454 -0.891 0.891 0.454 -17.1434 654.2773)" class="st10" cx="525.3" cy="341.1" rx="7.9" ry="7.9"/>
					
						<ellipse id="_Path_26" transform="matrix(0.454 -0.891 0.891 0.454 -17.1434 654.2773)" class="st9" cx="525.3" cy="341.1" rx="5.4" ry="5.4"/>
					<path id="_Path_27" class="st11" d="M532.9,343c0.6-2.5,0-5.1-1.7-7c-2,0-3.7,1.7-3.6,3.7s1.7,3.7,3.7,3.6
						C531.9,343.4,532.4,343.2,532.9,343z"/>
				</g>
				<g id="_Group_13">
					
						<ellipse id="_Path_28" transform="matrix(0.454 -0.891 0.891 0.454 -14.7012 685.4758)" class="st11" cx="551.9" cy="354.7" rx="13.4" ry="13.4"/>
					
						<ellipse id="_Path_29" transform="matrix(0.454 -0.891 0.891 0.454 -14.7012 685.4758)" class="st10" cx="551.9" cy="354.7" rx="9.6" ry="9.6"/>
					
						<ellipse id="_Path_30" transform="matrix(0.454 -0.891 0.891 0.454 -14.7012 685.4758)" class="st9" cx="551.9" cy="354.7" rx="6.6" ry="6.6"/>
					<path id="_Path_31" class="st11" d="M561.3,357c0.7-3,0-6.2-2-8.6c-2.5,0.1-4.4,2.2-4.3,4.7c0.1,2.5,2.2,4.4,4.7,4.3
						C560.2,357.4,560.7,357.2,561.3,357z"/>
				</g>
			</g>
			<g id="_Group_14">
				<path id="_Path_32" class="st10" d="M512.5,329.4c2.7-4.7,5.3-7.9,7.9-9.9l0,0c0,0-10.6-10.6,4.1-19
					C524.5,300.6,494,305.5,512.5,329.4L512.5,329.4z"/>
				<path id="_Path_33" class="st10" d="M586.7,331.6c1.5,13.9-8.2,14.8-11.8,14.6c-0.2,3.1-1,6.1-2.3,8.9l-1.4,3.2
					C600.4,358.7,586.7,331.6,586.7,331.6z"/>
			</g>
			<g id="_Group_15">
				<path id="_Path_34" class="st9" d="M509.8,353.7c0,0,30,18.4,44.4,24.4c0,0-8.7,19.1-22.3,12.9s-23.9-11.1-25.7-17.3
					C503.3,363.5,509.8,353.7,509.8,353.7z"/>
				<g id="_Group_16">
					<path id="_Path_35" class="st11" d="M549.2,379.4c1.5,0.7,3.2,0.1,4-1.3c0.1-0.1,0.1-0.3,0.2-0.4
						c-13.4-5.7-38.5-20.9-42.9-23.6c-0.1,0.1-0.1,0.2-0.2,0.3c-1.3,2.5-0.3,5.6,2.2,6.9c1.6,0.8,3.6,0.7,5.1-0.3l-0.1,0.2
						c-1.4,2.7-0.3,6.1,2.4,7.5c2.2,1.1,4.8,0.7,6.5-1c-0.5,4.2,2.5,8,6.7,8.5c2,0.2,4-0.3,5.6-1.5c-0.5,2.8,1.3,5.5,4,6
						c2.1,0.4,4.2-0.5,5.4-2.4C548.4,378.8,548.7,379.2,549.2,379.4z"/>
					<path id="_Path_36" class="st11" d="M513.5,374.7c-1.6,0.1-3,2.1-3.8,4c1.4,1.2,2.8,2.3,4.4,3.3
						C514.8,379.3,515.4,374.7,513.5,374.7z"/>
					<path id="_Path_37" class="st11" d="M531.9,391c0.6,0.3,1.2,0.5,1.8,0.7c1-1.8,2.3-4.5,1.3-6s-4.5,1.7-6.3,3.9L531.9,391z"/>
				</g>
			</g>
		</g>
		<polygon class="st12" points="364.9,245.9 305.6,224.6 315.5,245.3 364,271.1 		"/>
		<g id="_Group_17">
			<path id="_Path_38" class="st13" d="M361,403.5c0.4,4,3.4,7.3,7.4,8.1c6.3,0.9,12.6,1.3,19,1.3c3.8-0.2,6.7-3.3,6.7-7.1
				c0-1.2,0.1-2.5,0.1-3.8c0.3-3.8,4.2-6.1,8-5.6c11.8,1.8,36.6,5,55.3,3.6c3.8-0.3,6.4,2.2,6,6l-0.2,1.9c-0.5,3.8,2.1,7.3,5.9,8
				c6.5,1,16.6,2,26,0.9c3.7-0.4,6.7-4.2,6.8-8c0.2-35.7,1.6-201.7,8.6-271c0.6-5-3-9.4-8-10c0,0,0,0,0,0
				c-23.5-2.3-87.3-7.5-122.9,1.4c-4.9,1.2-8.9,6.7-9.2,11.8C368,183,358.4,359.5,361,403.5z"/>
			<g id="_Group_18">
				
					<ellipse id="_Path_39" transform="matrix(7.114930e-002 -0.9975 0.9975 7.114930e-002 196.2453 572.9951)" class="st14" cx="405.8" cy="181.1" rx="25.3" ry="25.3"/>
				
					<ellipse id="_Path_40" transform="matrix(7.114930e-002 -0.9975 0.9975 7.114930e-002 196.2453 572.9951)" class="st13" cx="405.8" cy="181.1" rx="17.8" ry="17.8"/>
				
					<ellipse id="_Path_41" transform="matrix(7.114930e-002 -0.9975 0.9975 7.114930e-002 196.2453 572.9951)" class="st6" cx="405.8" cy="181.1" rx="9.2" ry="9.2"/>
				
					<ellipse id="_Path_42" transform="matrix(0.5982 -0.8014 0.8014 0.5982 19.1363 390.481)" class="st14" cx="398.9" cy="176.2" rx="10.1" ry="7.9"/>
			</g>
			<g id="_Group_19">
				
					<ellipse id="_Path_43" transform="matrix(7.114930e-002 -0.9975 0.9975 7.114930e-002 251.2579 636.3262)" class="st14" cx="467.3" cy="183.3" rx="25.3" ry="25.3"/>
				
					<ellipse id="_Path_44" transform="matrix(7.114930e-002 -0.9975 0.9975 7.114930e-002 251.2579 636.3262)" class="st13" cx="467.3" cy="183.3" rx="17.8" ry="17.8"/>
				
					<ellipse id="_Path_45" transform="matrix(7.114930e-002 -0.9975 0.9975 7.114930e-002 251.2579 636.3262)" class="st6" cx="467.3" cy="183.3" rx="9.2" ry="9.2"/>
				
					<ellipse id="_Path_46" transform="matrix(0.5982 -0.8014 0.8014 0.5982 42.1467 440.6328)" class="st14" cx="460.5" cy="178.3" rx="10.1" ry="7.9"/>
			</g>
			<path id="_Path_47" class="st6" d="M411.4,225.6c0,0,27.6-2.1,50.6,7.2c0,0,3.7,100.3-28.1,98S411.4,225.6,411.4,225.6z"/>
			<path id="_Path_48" class="st14" d="M422.5,249.8l12.3-0.3l1.6-23c-5-0.6-10.1-1-15.2-1.1L422.5,249.8z"/>
			<path id="_Path_49" class="st13" d="M370.1,144.6L370.1,144.6c-0.1,0-55.8,4.8-58.8,47.7c-2.4,33.2,21,35.7,21,35.7
				s-24.1-46,35.9-46.7l0,0C368.9,166.1,369.6,153.4,370.1,144.6z"/>
			<path id="_Path_50" class="st13" d="M509.6,146.1c-0.9,10.7-1.7,23-2.4,36.5c54.3,10.3,25.3,50.6,25.3,50.6s23.5,0.9,25.9-32.3
				C561,163.8,520.6,149.3,509.6,146.1z"/>
		</g>
		<path class="st12" d="M240.5,195.7l-3.8,5.5c-0.6,0.9-1.9,1.2-2.8,0.5l-23.2-15.9c-0.9-0.6-1.2-1.9-0.5-2.8l3.8-5.5
			c0.6-0.9,1.9-1.2,2.8-0.5l23.2,15.9C240.9,193.5,241.1,194.7,240.5,195.7z"/>
		<path class="st12" d="M230.4,205.9l2.5,6.2c0.4,1-0.1,2.2-1.1,2.6l-26,10.6c-1,0.4-2.2-0.1-2.6-1.1l-2.5-6.2
			c-0.4-1,0.1-2.2,1.1-2.6l26-10.6C228.8,204.3,230,204.8,230.4,205.9z"/>
		<path class="st12" d="M238.7,215.9l3.3,5.8c0.6,1,0.2,2.2-0.7,2.7l-24.3,14c-1,0.6-2.2,0.2-2.7-0.7l-3.3-5.8
			c-0.6-1-0.2-2.2,0.7-2.7l24.3-14C236.9,214.6,238.1,214.9,238.7,215.9z"/>
	</g>
</g>
</svg>
